MyLabJournal – challenge
…
# 6.1 Sales by Year and State ----

# Step 1 - Manipulate
sales_by_year_date <- bike_orderlines_wrangled_tbl %>%
  select("order_date", "total_price", "state") %>%
  mutate(year_column = year(order_date)) %>%
  group_by(year_column, state)%>%
  summarise(sales = sum(total_price))

`summarise()` has grouped output by 'year_column'. You can override using the
`.groups` argument.

  sales_by_year_date

# A tibble: 60 × 3
# Groups:   year_column [5]
   year_column state                           sales
         <dbl> <chr>                           <dbl>
 1        2015 Baden-Württemberg             1031924
 2        2015 Bavaria                       1301461
 3        2015 Berlin                          95853
 4        2015 Bremen                        1395912
 5        2015 Hamburg                        423090
 6        2015 Hesse                          308609
 7        2015 Lower Saxony                   584386
 8        2015 Mecklenburg-Western Pomerania  222003
 9        2015 North Rhine-Westphalia        3735092
10        2015 Saxony                         238371
# ℹ 50 more rows
…
